<?xml version="1.0" encoding="UTF-8" standalone="no"?>
<!-- Created with Inkscape (http://www.inkscape.org/) -->

<svg
   xmlns:dc="http://purl.org/dc/elements/1.1/"
   xmlns:cc="http://creativecommons.org/ns#"
   xmlns:rdf="http://www.w3.org/1999/02/22-rdf-syntax-ns#"
   xmlns:svg="http://www.w3.org/2000/svg"
   xmlns="http://www.w3.org/2000/svg"
   xmlns:xlink="http://www.w3.org/1999/xlink"
   xmlns:sodipodi="http://sodipodi.sourceforge.net/DTD/sodipodi-0.dtd"
   xmlns:inkscape="http://www.inkscape.org/namespaces/inkscape"
   width="512"
   height="175"
   viewBox="0 0 135.46667 46.302081"
   version="1.1"
   id="svg1062"
   sodipodi:docname="xrdesktop.svg"
   inkscape:version="0.92.4 5da689c313, 2019-01-14">
  <defs
     id="defs1056">
    <linearGradient
       inkscape:collect="always"
       xlink:href="#linearGradient893"
       id="linearGradient1218-5"
       gradientUnits="userSpaceOnUse"
       x1="334.89276"
       y1="480.77734"
       x2="350.13144"
       y2="413.2814"
       gradientTransform="matrix(0.26458096,0,0,0.2645851,9.0890644e-4,-0.00100339)" />
    <linearGradient
       id="linearGradient893"
       inkscape:collect="always">
      <stop
         id="stop887"
         offset="0"
         style="stop-color:#ff5722;stop-opacity:1" />
      <stop
         style="stop-color:#9c27b0;stop-opacity:1"
         offset="0.53094351"
         id="stop889" />
      <stop
         id="stop891"
         offset="1"
         style="stop-color:#03a9f4;stop-opacity:1" />
    </linearGradient>
  </defs>
  <sodipodi:namedview
     id="base"
     pagecolor="#ffffff"
     bordercolor="#666666"
     borderopacity="1.0"
     inkscape:pageopacity="0.0"
     inkscape:pageshadow="2"
     inkscape:zoom="2.8"
     inkscape:cx="218.68671"
     inkscape:cy="75.832869"
     inkscape:document-units="mm"
     inkscape:current-layer="g826"
     showgrid="false"
     showguides="true"
     inkscape:guide-bbox="true"
     inkscape:window-width="2560"
     inkscape:window-height="1376"
     inkscape:window-x="1080"
     inkscape:window-y="27"
     inkscape:window-maximized="1"
     fit-margin-top="5"
     fit-margin-right="5"
     fit-margin-bottom="5"
     fit-margin-left="5"
     units="px" />
  <metadata
     id="metadata1059">
    <rdf:RDF>
      <cc:Work
         rdf:about="">
        <dc:format>image/svg+xml</dc:format>
        <dc:type
           rdf:resource="http://purl.org/dc/dcmitype/StillImage" />
        <dc:title></dc:title>
      </cc:Work>
    </rdf:RDF>
  </metadata>
  <g
     inkscape:label="Layer 1"
     inkscape:groupmode="layer"
     id="layer1"
     transform="translate(-74.700654,-85.534066)">
    <g
       id="g826"
       transform="matrix(1.9006407,0,0,1.9006407,-71.65503,-117.18649)">
      <path
         inkscape:connector-curvature="0"
         id="path866"
         style="font-style:normal;font-variant:normal;font-weight:normal;font-stretch:normal;font-size:40px;line-height:25px;font-family:Laksaman;-inkscape-font-specification:Laksaman;letter-spacing:0px;word-spacing:0px;fill:#f2f2f2;fill-opacity:1;stroke:none;stroke-width:0.23765914px;stroke-linecap:butt;stroke-linejoin:miter;stroke-opacity:1"
         d="m 108.43679,120.70831 h -0.65594 l -1.62559,-2.1009 -1.61608,2.1009 h -0.64643 l 1.97732,-2.47165 -1.84424,-2.3861 h 0.62742 l 1.54004,1.96782 1.53052,-1.96782 h 0.61791 l -1.86324,2.36709 z" />
      <path
         inkscape:connector-curvature="0"
         id="path868"
         style="font-style:normal;font-variant:normal;font-weight:normal;font-stretch:normal;font-size:40px;line-height:25px;font-family:Laksaman;-inkscape-font-specification:Laksaman;letter-spacing:0px;word-spacing:0px;fill:#f2f2f2;fill-opacity:1;stroke:none;stroke-width:0.23765914px;stroke-linecap:butt;stroke-linejoin:miter;stroke-opacity:1"
         d="m 111.41718,116.24032 q -0.057,-0.019 -0.17111,-0.019 -0.62742,0 -1.06471,0.51334 -0.42779,0.50384 -0.42779,1.35941 v 2.61425 h -0.57038 v -3.27019 q 0,-1.07422 -0.1426,-1.58756 h 0.48483 q 0.1521,0.3042 0.1521,0.96965 0.4563,-1.07422 1.46398,-1.07422 0.13309,0 0.27568,0.0285 z" />
      <path
         inkscape:connector-curvature="0"
         id="path870"
         style="font-style:normal;font-variant:normal;font-weight:normal;font-stretch:normal;font-size:40px;line-height:25px;font-family:Laksaman;-inkscape-font-specification:Laksaman;letter-spacing:0px;word-spacing:0px;fill:#f2f2f2;fill-opacity:1;stroke:none;stroke-width:0.23765914px;stroke-linecap:butt;stroke-linejoin:miter;stroke-opacity:1"
         d="m 111.94167,118.21765 q 0,-1.06472 0.58939,-1.76819 0.5989,-0.70347 1.59707,-0.70347 1.20731,0 1.83473,1.02669 v -3.2892 h 0.57038 v 6.03654 q 0,0.85557 0.038,1.18829 h -0.52285 q -0.0285,-0.37074 -0.0285,-0.85557 -0.67495,0.98866 -1.80621,0.98866 -1.06471,0 -1.67312,-0.73199 -0.5989,-0.74149 -0.5989,-1.89176 z m 2.34807,2.14843 q 0.70347,0 1.18829,-0.4563 0.48483,-0.46581 0.48483,-1.15027 v -0.80804 q 0,-0.73199 -0.50384,-1.22632 -0.49433,-0.50384 -1.22632,-0.50384 -0.82705,0 -1.27385,0.56088 -0.4468,0.56087 -0.4468,1.45447 0,2.12942 1.77769,2.12942 z" />
      <path
         inkscape:connector-curvature="0"
         id="path872"
         style="font-style:normal;font-variant:normal;font-weight:normal;font-stretch:normal;font-size:40px;line-height:25px;font-family:Laksaman;-inkscape-font-specification:Laksaman;letter-spacing:0px;word-spacing:0px;fill:#f2f2f2;fill-opacity:1;stroke:none;stroke-width:0.23765914px;stroke-linecap:butt;stroke-linejoin:miter;stroke-opacity:1"
         d="m 118.23978,118.32222 q 0.0285,0.92211 0.55137,1.48299 0.53236,0.56087 1.41645,0.56087 0.82706,0 1.70164,-0.34222 l 0.0475,0.46581 q -0.84606,0.35173 -1.80621,0.35173 -1.09323,0 -1.78719,-0.67495 -0.69397,-0.68446 -0.69397,-1.75868 0,-1.15027 0.66545,-1.90127 0.67495,-0.76051 1.75867,-0.76051 2.04387,0 2.09141,2.57623 z m 3.37476,-0.47532 q -0.019,-0.7415 -0.4563,-1.17879 -0.42779,-0.4468 -1.13126,-0.4468 -0.70347,0 -1.17879,0.46581 -0.47532,0.45631 -0.57989,1.15978 z" />
      <path
         inkscape:connector-curvature="0"
         id="path874"
         style="font-style:normal;font-variant:normal;font-weight:normal;font-stretch:normal;font-size:40px;line-height:25px;font-family:Laksaman;-inkscape-font-specification:Laksaman;letter-spacing:0px;word-spacing:0px;fill:#f2f2f2;fill-opacity:1;stroke:none;stroke-width:0.23765914px;stroke-linecap:butt;stroke-linejoin:miter;stroke-opacity:1"
         d="m 124.72788,116.22131 q -0.39927,0 -0.66545,0.22815 -0.26618,0.21865 -0.26618,0.57989 0,0.26618 0.27569,0.52285 0.28519,0.25667 0.79853,0.43729 1.30238,0.4468 1.30238,1.43546 0,0.66545 -0.50384,1.0457 -0.49433,0.37075 -1.25484,0.37075 -0.70347,0 -1.36892,-0.38976 l 0.20914,-0.4563 q 0.68446,0.37074 1.20731,0.37074 1.14076,0 1.14076,-0.9031 0,-0.33272 -0.27568,-0.5989 -0.26618,-0.27569 -0.79854,-0.43729 -1.30237,-0.39927 -1.30237,-1.32139 0,-0.61791 0.45631,-0.98866 0.46581,-0.37075 1.15027,-0.37075 0.751,0 1.1978,0.33272 l -0.22815,0.48483 q -0.42779,-0.34223 -1.07422,-0.34223 z" />
      <path
         inkscape:connector-curvature="0"
         id="path876"
         style="font-style:normal;font-variant:normal;font-weight:normal;font-stretch:normal;font-size:40px;line-height:25px;font-family:Laksaman;-inkscape-font-specification:Laksaman;letter-spacing:0px;word-spacing:0px;fill:#f2f2f2;fill-opacity:1;stroke:none;stroke-width:0.23765914px;stroke-linecap:butt;stroke-linejoin:miter;stroke-opacity:1"
         d="m 131.34267,120.67979 -0.56087,0.16161 -2.31005,-2.66178 -0.50384,0.48483 v 2.04386 h -0.57038 v -7.22483 h 0.57038 v 4.55355 l 2.41462,-2.26252 0.57038,0.11408 -2.08189,1.97732 z" />
      <path
         inkscape:connector-curvature="0"
         id="path878"
         style="font-style:normal;font-variant:normal;font-weight:normal;font-stretch:normal;font-size:40px;line-height:25px;font-family:Laksaman;-inkscape-font-specification:Laksaman;letter-spacing:0px;word-spacing:0px;fill:#f2f2f2;fill-opacity:1;stroke:none;stroke-width:0.23765914px;stroke-linecap:butt;stroke-linejoin:miter;stroke-opacity:1"
         d="m 133.46839,120.8414 q -0.5894,0 -0.92212,-0.43729 -0.32322,-0.4468 -0.32322,-1.12175 v -3.00401 h -0.96965 v -0.42779 h 0.96965 v -1.44497 l 0.57039,-0.25667 v 1.70164 h 1.54953 v 0.42779 h -1.54953 v 3.00401 q 0,1.08372 0.72248,1.08372 0.4468,0 0.65594,-0.0855 l 0.057,0.42778 q -0.2947,0.13309 -0.76051,0.13309 z" />
      <path
         inkscape:connector-curvature="0"
         id="path880"
         style="font-style:normal;font-variant:normal;font-weight:normal;font-stretch:normal;font-size:40px;line-height:25px;font-family:Laksaman;-inkscape-font-specification:Laksaman;letter-spacing:0px;word-spacing:0px;fill:#f2f2f2;fill-opacity:1;stroke:none;stroke-width:0.23765914px;stroke-linecap:butt;stroke-linejoin:miter;stroke-opacity:1"
         d="m 139.86067,118.2937 q 0,1.08372 -0.69396,1.81571 -0.68446,0.73199 -1.75868,0.73199 -1.08372,0 -1.76818,-0.72248 -0.68446,-0.73199 -0.68446,-1.82522 0,-1.08373 0.69396,-1.81572 0.69397,-0.73199 1.75868,-0.73199 1.07422,0 1.75868,0.73199 0.69396,0.73199 0.69396,1.81572 z m -2.45264,2.07238 q 0.82706,0 1.34991,-0.5989 0.53235,-0.5989 0.53235,-1.47348 0,-0.87459 -0.52285,-1.47349 -0.52285,-0.5989 -1.35941,-0.5989 -0.82705,0 -1.35941,0.5989 -0.52285,0.5989 -0.52285,1.47349 0,0.87458 0.52285,1.47348 0.53236,0.5989 1.35941,0.5989 z" />
      <path
         inkscape:connector-curvature="0"
         id="path882"
         style="font-style:normal;font-variant:normal;font-weight:normal;font-stretch:normal;font-size:40px;line-height:25px;font-family:Laksaman;-inkscape-font-specification:Laksaman;letter-spacing:0px;word-spacing:0px;fill:#f2f2f2;fill-opacity:1;stroke:none;stroke-width:0.23765914px;stroke-linecap:butt;stroke-linejoin:miter;stroke-opacity:1"
         d="m 143.30822,115.74599 q 1.0552,0 1.66361,0.7415 0.60841,0.73199 0.60841,1.87275 0,1.07422 -0.5989,1.77769 -0.5894,0.70347 -1.58757,0.70347 -1.2073,0 -1.83472,-1.03619 v 3.2892 h -0.57039 v -6.03654 q 0,-0.8936 -0.038,-1.20731 h 0.52285 q 0.0285,0.37075 0.0285,0.88409 0.67495,-0.98866 1.80621,-0.98866 z m -0.0761,0.47532 q -0.70348,0 -1.1883,0.45631 -0.48482,0.4563 -0.48482,1.14076 v 0.81755 q 0,0.72248 0.50383,1.22632 0.50384,0.50383 1.22632,0.50383 0.82706,0 1.27386,-0.55136 0.4468,-0.55137 0.4468,-1.46398 0,-0.98867 -0.4468,-1.55905 -0.4373,-0.57038 -1.33089,-0.57038 z" />
      <path
         id="rect917-0-7-4-9-1-9-8-8-9-1-1-1-1-2"
         d="m 96.902138,110.84414 c -0.04912,-0.004 -0.0992,0.002 -0.148818,0.0181 l -16.791596,5.56765 c -0.21072,0.0699 -0.311129,0.30651 -0.23616,0.5085 l 3.57701,9.63719 c 0.075,0.2022 0.30881,0.32289 0.517278,0.22688 l 16.790038,-7.68176 c 0.0914,-0.0418 0.16607,-0.11129 0.21084,-0.20153 0.0448,-0.0903 0.054,-0.20923 0.004,-0.31368 l -3.576501,-7.52052 c -0.06405,-0.13465 -0.199089,-0.22948 -0.346227,-0.24082 z m -10.806993,5.03951 h 8.368923 c 0.118147,0 0.213422,0.0948 0.213422,0.21291 v 4.42096 c 0,0.11814 -0.0953,0.2129 -0.213422,0.2129 h -8.368923 c -0.118147,0 -0.212906,-0.0948 -0.212906,-0.2129 v -4.42096 c 0,-0.11814 0.09476,-0.21291 0.212906,-0.21291 z"
         style="color:#000000;font-style:normal;font-variant:normal;font-weight:normal;font-stretch:normal;font-size:medium;line-height:normal;font-family:sans-serif;font-variant-ligatures:normal;font-variant-position:normal;font-variant-caps:normal;font-variant-numeric:normal;font-variant-alternates:normal;font-feature-settings:normal;text-indent:0;text-align:start;text-decoration:none;text-decoration-line:none;text-decoration-style:solid;text-decoration-color:#000000;letter-spacing:normal;word-spacing:normal;text-transform:none;writing-mode:lr-tb;direction:ltr;text-orientation:mixed;dominant-baseline:auto;baseline-shift:baseline;text-anchor:start;white-space:normal;shape-padding:0;clip-rule:nonzero;display:inline;overflow:visible;visibility:visible;opacity:1;isolation:auto;mix-blend-mode:normal;color-interpolation:sRGB;color-interpolation-filters:linearRGB;solid-color:#000000;solid-opacity:1;vector-effect:none;fill:url(#linearGradient1218-5);fill-opacity:1;fill-rule:evenodd;stroke:none;stroke-width:0.21001142;stroke-linecap:butt;stroke-linejoin:miter;stroke-miterlimit:4;stroke-dasharray:none;stroke-dashoffset:0;stroke-opacity:1;marker:none;color-rendering:auto;image-rendering:auto;shape-rendering:auto;text-rendering:auto;enable-background:accumulate"
         inkscape:connector-curvature="0" />
    </g>
  </g>
</svg>
